<?xml version="1.0" encoding="UTF-8" standalone="no"?>
<!-- Created with Inkscape (http://www.inkscape.org/) -->

<svg
   xmlns:dc="http://purl.org/dc/elements/1.1/"
   xmlns:cc="http://creativecommons.org/ns#"
   xmlns:rdf="http://www.w3.org/1999/02/22-rdf-syntax-ns#"
   xmlns:svg="http://www.w3.org/2000/svg"
   xmlns="http://www.w3.org/2000/svg"
   xmlns:sodipodi="http://sodipodi.sourceforge.net/DTD/sodipodi-0.dtd"
   xmlns:inkscape="http://www.inkscape.org/namespaces/inkscape"
   width="90"
   height="90"
   id="svg4874"
   version="1.1"
   inkscape:version="0.48.5 r10040"
   viewBox="0 0 90 90.000001"
   sodipodi:docname="edit-tags.svg">
  <defs
     id="defs4876">
    <inkscape:path-effect
       effect="spiro"
       id="path-effect3013"
       is_visible="true" />
  </defs>
  <sodipodi:namedview
     id="base"
     pagecolor="#ffffff"
     bordercolor="#666666"
     borderopacity="1.0"
     inkscape:pageopacity="0"
     inkscape:pageshadow="2"
     inkscape:zoom="9.0071992"
     inkscape:cx="45.97989"
     inkscape:cy="39.822837"
     inkscape:document-units="px"
     inkscape:current-layer="g1910"
     showgrid="true"
     showborder="true"
     fit-margin-top="0"
     fit-margin-left="0"
     fit-margin-right="0"
     fit-margin-bottom="0"
     inkscape:snap-bbox="true"
     inkscape:bbox-paths="true"
     inkscape:bbox-nodes="true"
     inkscape:snap-bbox-edge-midpoints="true"
     inkscape:snap-bbox-midpoints="true"
     inkscape:object-paths="true"
     inkscape:snap-intersection-paths="true"
     inkscape:object-nodes="true"
     inkscape:snap-smooth-nodes="true"
     inkscape:snap-midpoints="true"
     inkscape:snap-object-midpoints="true"
     inkscape:snap-center="true"
     showguides="true"
     inkscape:guide-bbox="true"
     inkscape:window-width="1201"
     inkscape:window-height="937"
     inkscape:window-x="65"
     inkscape:window-y="24"
     inkscape:window-maximized="1">
    <inkscape:grid
       type="xygrid"
       id="grid5451"
       empspacing="6"
       dotted="true"
       visible="true"
       enabled="true"
       snapvisiblegridlinesonly="true" />
    <sodipodi:guide
       orientation="1,0"
       position="6,77"
       id="guide4063" />
    <sodipodi:guide
       orientation="1,0"
       position="3,78"
       id="guide4065" />
    <sodipodi:guide
       orientation="0,1"
       position="55,84"
       id="guide4067" />
    <sodipodi:guide
       orientation="0,1"
       position="53,87"
       id="guide4069" />
    <sodipodi:guide
       orientation="0,1"
       position="20,3"
       id="guide4071" />
    <sodipodi:guide
       orientation="0,1"
       position="20,6"
       id="guide4073" />
    <sodipodi:guide
       orientation="1,0"
       position="87,7"
       id="guide4075" />
    <sodipodi:guide
       orientation="1,0"
       position="84,7"
       id="guide4077" />
    <sodipodi:guide
       orientation="0,1"
       position="58,81"
       id="guide4074" />
    <sodipodi:guide
       orientation="1,0"
       position="9,74"
       id="guide4076" />
    <sodipodi:guide
       orientation="0,1"
       position="21,9"
       id="guide4078" />
    <sodipodi:guide
       orientation="1,0"
       position="81,4"
       id="guide4080" />
  </sodipodi:namedview>
  <metadata
     id="metadata4879">
    <rdf:RDF>
      <cc:Work
         rdf:about="">
        <dc:format>image/svg+xml</dc:format>
        <dc:type
           rdf:resource="http://purl.org/dc/dcmitype/StillImage" />
        <dc:title />
      </cc:Work>
    </rdf:RDF>
  </metadata>
  <g
     inkscape:label="Layer 1"
     inkscape:groupmode="layer"
     id="layer1"
     transform="translate(67.857146,-84.50504)">
    <g
       transform="matrix(0,-1,-1,0,373.50506,516.50504)"
       id="g4845"
       style="display:inline">
      <g
         inkscape:label="Layer 1"
         id="g1908"
         transform="matrix(0,-1,-1,0,1394.3622,585.3622)"
         inkscape:export-filename="next01.png"
         inkscape:export-xdpi="90"
         inkscape:export-ydpi="90">
        <g
           style="display:inline"
           id="g1910"
           transform="translate(-198.00001,611)">
          <rect
             transform="scale(-1,1)"
             y="351.36221"
             x="-432"
             height="90"
             width="90"
             id="rect1914"
             style="color:#000000;fill:none;stroke:none;stroke-width:4;marker:none;visibility:visible;display:inline;overflow:visible;enable-background:accumulate" />
          <path
             style="color:#000000;fill:#808080;fill-opacity:1;fill-rule:nonzero;stroke:none;stroke-width:1;marker:none;visibility:visible;display:inline;overflow:visible;enable-background:accumulate"
             d="M 45 50 L 47.03125 52.03125 L 67.875 52.03125 L 67.875 84.96875 L 34.625 84.96875 C 25.45832 80.67184 15.96597 75.43214 5.90625 68.5 C 14.995692 62.382857 22.351608 57.985662 30.03125 54.21875 L 31.9375 50.875 C 27.648189 52.901211 14.459942 59.408256 2.15625 68.5 C 2.16005 68.502462 2.15285 68.5289 2.15625 68.53125 C 16.95336 79.4654 33.875 87.03125 33.875 87.03125 L 33.875 87 L 70.125 87 L 70.125 68.53125 L 70.125 68.5 L 70.125 50 L 45 50 z "
             transform="translate(342,351.3622)"
             id="rect1916" />
          <g
             id="g3784"
             transform="matrix(0.82577976,0,0,0.82577976,361.42146,-447.10148)">
            <path
               sodipodi:nodetypes="ccccccccccccccccccc"
               inkscape:connector-curvature="0"
               id="path2194-7"
               d="m 65.384616,968.36168 -47.076923,47.92312 c 0,0 -8.9230752,13.9993 -12.3076932,30.0339 0.00189,9e-4 0.00214,0 0.00496,0.01 9.392e-4,0 4.875e-4,0 0.00331,0.012 9.392e-4,0 -0.00117,0 0.00165,0.012 9.475e-4,8e-4 0.0012,0.01 0.00496,0.01 C 22.07676,1042.9781 36.076929,1034.055 36.076929,1034.055 L 84,986.97706 z m -43.394832,51.60522 10.436449,10.4364 c -0.702337,0.4064 -10.601148,7.3211 -19.653698,9.2288 -0.0022,0 -9.75e-4,-0.01 -0.0017,-0.01 -0.0017,-0.01 -0.0011,-0.01 -0.0017,-0.01 -0.0017,-0.01 -0.0011,-0.01 -0.0017,-0.01 -0.0017,-0.01 -0.0021,-0.01 -0.0033,-0.01 1.905141,-9.0256 8.810413,-18.9128 9.225511,-19.6305 z"
               style="color:#000000;fill:#808080;fill-opacity:1;fill-rule:nonzero;stroke:none;stroke-width:3;marker:none;visibility:visible;display:inline;overflow:visible;enable-background:accumulate" />
          </g>
          <path
             style="color:#000000;fill:#808080;fill-opacity:1;fill-rule:nonzero;stroke:none;stroke-width:9;marker:none;visibility:visible;display:inline;overflow:visible;enable-background:accumulate"
             d="m 372.66477,406.4822 4.19242,4.1924 -6.98736,2.60484 z"
             id="path4126"
             inkscape:connector-curvature="0"
             sodipodi:nodetypes="cccc" />
        </g>
      </g>
    </g>
  </g>
</svg>
