<?xml version="1.0" encoding="UTF-8" standalone="no"?>
<!-- Created with Inkscape (http://www.inkscape.org/) -->

<svg
   xmlns:dc="http://purl.org/dc/elements/1.1/"
   xmlns:cc="http://creativecommons.org/ns#"
   xmlns:rdf="http://www.w3.org/1999/02/22-rdf-syntax-ns#"
   xmlns:svg="http://www.w3.org/2000/svg"
   xmlns="http://www.w3.org/2000/svg"
   xmlns:xlink="http://www.w3.org/1999/xlink"
   xmlns:sodipodi="http://sodipodi.sourceforge.net/DTD/sodipodi-0.dtd"
   xmlns:inkscape="http://www.inkscape.org/namespaces/inkscape"
   id="svg2"
   sodipodi:docname="imaginario.svg"
   inkscape:export-filename="/home/alberto/Imágenes/svg/lens.png"
   viewBox="0 0 640 640"
   inkscape:export-xdpi="72.130074"
   version="1.1"
   inkscape:export-ydpi="72.130074"
   inkscape:version="0.48.4 r9939"
   width="100%"
   height="100%">
  <defs
     id="defs4">
    <linearGradient
       id="linearGradient3961"
       inkscape:collect="always">
      <stop
         id="stop3963"
         style="stop-color:#00ffff"
         offset="0" />
      <stop
         id="stop3965"
         style="stop-color:#000000;stop-opacity:0"
         offset="1" />
    </linearGradient>
    <linearGradient
       id="linearGradient3908">
      <stop
         id="stop3910"
         style="stop-color:#ffffff"
         offset="0" />
      <stop
         id="stop3924"
         style="stop-color:#ffffff;stop-opacity:0"
         offset=".90625" />
      <stop
         id="stop3912"
         style="stop-color:#ffffff"
         offset="1" />
    </linearGradient>
    <linearGradient
       id="linearGradient3844"
       inkscape:collect="always">
      <stop
         id="stop3846"
         style="stop-color:#ffffff"
         offset="0" />
      <stop
         id="stop3848"
         style="stop-color:#ffffff;stop-opacity:0"
         offset="1" />
    </linearGradient>
    <radialGradient
       id="radialGradient2907"
       gradientUnits="userSpaceOnUse"
       cy="108.49"
       cx="305.89001"
       gradientTransform="matrix(0,1.5877,-1.6842,0,645.65,-272.62)"
       r="319.42001"
       inkscape:collect="always">
      <stop
         id="stop2903"
         style="stop-color:#999999"
         offset="0" />
      <stop
         id="stop2905"
         style="stop-color:#1a1a1a"
         offset="1" />
    </radialGradient>
    <radialGradient
       id="radialGradient2915"
       gradientUnits="userSpaceOnUse"
       cy="276.19"
       cx="468.64999"
       gradientTransform="matrix(6.2962e-8,1.1451,-1.7493,2.5402e-5,945.99,-255.75)"
       r="257.14001"
       inkscape:collect="always">
      <stop
         id="stop2911"
         style="stop-color:#4d4d4d"
         offset="0" />
      <stop
         id="stop2913"
         style="stop-color:#000000"
         offset="1" />
    </radialGradient>
    <radialGradient
       id="radialGradient2925"
       gradientUnits="userSpaceOnUse"
       cy="282.32999"
       cx="466.25"
       gradientTransform="matrix(-6.1723e-6,1.3371,-1.8072,0,973.1,-342.47)"
       r="257.14001"
       inkscape:collect="always">
      <stop
         id="stop2921"
         style="stop-color:#ffffff"
         offset="0" />
      <stop
         id="stop2923"
         style="stop-color:#cccccc;stop-opacity:0"
         offset="1" />
    </radialGradient>
    <radialGradient
       id="radialGradient2929"
       gradientUnits="userSpaceOnUse"
       cy="282.32999"
       cx="466.25"
       gradientTransform="matrix(-6.1723e-6,1.3371,-1.8072,0,973.1,-342.47)"
       r="257.14001"
       inkscape:collect="always">
      <stop
         id="stop3705"
         style="stop-color:#cccccc"
         offset="0" />
      <stop
         id="stop3707"
         style="stop-color:#1a1a1a"
         offset="1" />
    </radialGradient>
    <radialGradient
       id="radialGradient3721"
       gradientUnits="userSpaceOnUse"
       cy="-49.370998"
       cx="-4657.8999"
       gradientTransform="matrix(0.032484,1.2941,-1.8061,0.045355,521.1,6322.5)"
       r="257.14001"
       inkscape:collect="always">
      <stop
         id="stop3731"
         style="stop-color:#ffffff"
         offset="0" />
      <stop
         id="stop3733"
         style="stop-color:#000000;stop-opacity:0"
         offset="1" />
    </radialGradient>
    <radialGradient
       id="radialGradient3737"
       gradientUnits="userSpaceOnUse"
       cy="-49.370998"
       cx="-4657.8999"
       gradientTransform="matrix(0.032484,1.2941,-1.8061,0.045355,521.1,6322.5)"
       r="257.14001"
       inkscape:collect="always">
      <stop
         id="stop3751"
         style="stop-color:#ffffff"
         offset="0" />
      <stop
         id="stop3753"
         style="stop-color:#333333"
         offset="1" />
    </radialGradient>
    <radialGradient
       id="radialGradient3755"
       gradientUnits="userSpaceOnUse"
       cy="744.47998"
       cx="733.10999"
       gradientTransform="matrix(-0.29792,-0.19112,0.53995,-0.84169,474.34,1447.8)"
       r="257.14001"
       inkscape:collect="always">
      <stop
         id="stop3759"
         style="stop-color:#333333"
         offset="0" />
      <stop
         id="stop3761"
         style="stop-color:#000000"
         offset="1" />
    </radialGradient>
    <radialGradient
       id="radialGradient3769"
       gradientUnits="userSpaceOnUse"
       cy="201.21001"
       cx="424.67999"
       gradientTransform="matrix(-0.35403,0.93235,-1.7481,-0.66379,1070.5,316.35)"
       r="257.14001"
       inkscape:collect="always">
      <stop
         id="stop3987"
         style="stop-color:#00112b"
         offset="0" />
      <stop
         id="stop3989"
         style="stop-color:#000000"
         offset="1" />
    </radialGradient>
    <radialGradient
       id="radialGradient3786"
       gradientUnits="userSpaceOnUse"
       cy="367.39001"
       cx="316.31"
       gradientTransform="matrix(-0.66724,1.3468,-2.1729,-1.0765,1325.7,336.88)"
       r="257.14001"
       inkscape:collect="always">
      <stop
         id="stop3790"
         style="stop-color:#003380"
         offset="0" />
      <stop
         id="stop3792"
         style="stop-color:#0066ff"
         offset="1" />
    </radialGradient>
    <filter
       id="filter3818"
       height="1.5976"
       width="1.5976"
       color-interpolation-filters="sRGB"
       y="-0.29879999"
       x="-0.29879999"
       inkscape:collect="always">
      <feGaussianBlur
         id="feGaussianBlur3820"
         stdDeviation="64.027538"
         inkscape:collect="always" />
    </filter>
    <radialGradient
       id="radialGradient3850"
       xlink:href="#linearGradient3844"
       gradientUnits="userSpaceOnUse"
       cy="291.37"
       cx="466.48001"
       gradientTransform="matrix(-0.014075,0.74261,-0.99982,-0.018948,764.36,-49.514)"
       r="257.14001"
       inkscape:collect="always" />
    <radialGradient
       id="radialGradient3914"
       gradientUnits="userSpaceOnUse"
       cy="229.23"
       cx="464.39999"
       gradientTransform="matrix(-9.6769e-5,2.0482,-1.7396,-8.765e-5,861.67,-672.92)"
       r="259.81"
       inkscape:collect="always">
      <stop
         id="stop3928"
         style="stop-color:#ffffff"
         offset="0" />
      <stop
         id="stop3930"
         style="stop-color:#ffffff;stop-opacity:0"
         offset=".61235" />
      <stop
         id="stop3932"
         style="stop-color:#ffffff"
         offset="1" />
    </radialGradient>
    <radialGradient
       id="radialGradient3916"
       xlink:href="#linearGradient3908"
       gradientUnits="userSpaceOnUse"
       cy="275.13"
       cx="466.73001"
       gradientTransform="matrix(-8.9741e-5,1.7308,-1.47,-7.4111e-5,867.35,-488.93)"
       r="259.39999"
       inkscape:collect="always" />
    <radialGradient
       id="radialGradient3918"
       xlink:href="#linearGradient3908"
       gradientUnits="userSpaceOnUse"
       cy="202.94"
       cx="463.04999"
       gradientTransform="matrix(-1.1899e-4,2.2317,-1.8955,-9.5583e-5,847.57,-778.4)"
       r="259.81"
       inkscape:collect="always" />
    <radialGradient
       id="radialGradient3949"
       gradientUnits="userSpaceOnUse"
       cy="347.42001"
       cx="423.57001"
       gradientTransform="matrix(0.12257,0.95216,-0.99182,0.12767,754.62,-148.98)"
       r="198.14"
       inkscape:collect="always">
      <stop
         id="stop3945"
         style="stop-color:#ffffff"
         offset="0" />
      <stop
         id="stop3947"
         style="stop-color:#ffffff;stop-opacity:0"
         offset="1" />
    </radialGradient>
    <radialGradient
       id="radialGradient3957"
       gradientUnits="userSpaceOnUse"
       cy="349.48001"
       cx="404.07001"
       gradientTransform="matrix(-0.0048032,-0.17683,1.0631,-0.028876,93.351,415.35)"
       r="198.64"
       inkscape:collect="always">
      <stop
         id="stop3953"
         style="stop-color:#ffffff"
         offset="0" />
      <stop
         id="stop3955"
         style="stop-color:#ffffff;stop-opacity:0"
         offset="1" />
    </radialGradient>
    <radialGradient
       id="radialGradient3979"
       xlink:href="#linearGradient3961"
       gradientUnits="userSpaceOnUse"
       cy="538.01001"
       cx="202.50999"
       gradientTransform="matrix(0.55154,6.5553e-8,-4.6005e-7,1,94.025,0.066678)"
       r="257.14001"
       inkscape:collect="always" />
    <radialGradient
       id="radialGradient3981"
       xlink:href="#linearGradient3961"
       gradientUnits="userSpaceOnUse"
       cy="467.48999"
       cx="240.64"
       gradientTransform="matrix(0.48811,0.27449,-0.49017,0.87163,352.33,-6.0412)"
       r="257.14001"
       inkscape:collect="always" />
    <radialGradient
       id="radialGradient3983"
       xlink:href="#linearGradient3961"
       gradientUnits="userSpaceOnUse"
       cy="531.78003"
       cx="229.97"
       gradientTransform="matrix(0.65022,0.33707,-0.46023,0.8878,300.93,-11.557)"
       r="257.14001"
       inkscape:collect="always" />
    <radialGradient
       id="radialGradient4001"
       gradientUnits="userSpaceOnUse"
       cy="834.63"
       cx="498.44"
       gradientTransform="matrix(1.1533,-0.13837,0.13837,1.1533,-191.87,-58.942)"
       r="257.14001"
       inkscape:collect="always">
      <stop
         id="stop3997"
         style="stop-color:#ffffff"
         offset="0" />
      <stop
         id="stop3999"
         style="stop-color:#ffffff;stop-opacity:0"
         offset="1" />
    </radialGradient>
    <radialGradient
       id="radialGradient4028"
       gradientUnits="userSpaceOnUse"
       cy="494.07001"
       cx="432.35001"
       gradientTransform="matrix(-1.8619,-2.2355,1.054,-0.87785,716.6,1891)"
       r="80.999001"
       inkscape:collect="always">
      <stop
         id="stop4024"
         style="stop-color:#ffffff"
         offset="0" />
      <stop
         id="stop4026"
         style="stop-color:#ffffff;stop-opacity:0"
         offset="1" />
    </radialGradient>
    <radialGradient
       inkscape:collect="always"
       xlink:href="#linearGradient3844"
       id="radialGradient3079"
       gradientUnits="userSpaceOnUse"
       gradientTransform="matrix(-0.014075,0.74261,-0.99982,-0.018948,764.36,-49.514)"
       cx="466.48001"
       cy="291.37"
       r="257.14001" />
    <radialGradient
       inkscape:collect="always"
       xlink:href="#linearGradient3844"
       id="radialGradient3081"
       gradientUnits="userSpaceOnUse"
       gradientTransform="matrix(-0.014075,0.74261,-0.99982,-0.018948,764.36,-49.514)"
       cx="466.48001"
       cy="291.37"
       r="257.14001" />
    <radialGradient
       inkscape:collect="always"
       xlink:href="#linearGradient3844"
       id="radialGradient3083"
       gradientUnits="userSpaceOnUse"
       gradientTransform="matrix(-0.014075,0.74261,-0.99982,-0.018948,764.36,-49.514)"
       cx="466.48001"
       cy="291.37"
       r="257.14001" />
    <radialGradient
       inkscape:collect="always"
       xlink:href="#linearGradient3844"
       id="radialGradient3085"
       gradientUnits="userSpaceOnUse"
       gradientTransform="matrix(-0.014075,0.74261,-0.99982,-0.018948,764.36,-49.514)"
       cx="466.48001"
       cy="291.37"
       r="257.14001" />
    <radialGradient
       inkscape:collect="always"
       xlink:href="#radialGradient2907"
       id="radialGradient3124"
       gradientUnits="userSpaceOnUse"
       gradientTransform="matrix(0,1.5877,-1.6842,0,645.65,-272.62)"
       cx="305.89001"
       cy="108.49"
       r="319.42001" />
    <radialGradient
       inkscape:collect="always"
       xlink:href="#radialGradient2915"
       id="radialGradient3126"
       gradientUnits="userSpaceOnUse"
       gradientTransform="matrix(6.2962e-8,1.1451,-1.7493,2.5402e-5,945.99,-255.75)"
       cx="468.64999"
       cy="276.19"
       r="257.14001" />
    <radialGradient
       inkscape:collect="always"
       xlink:href="#radialGradient2925"
       id="radialGradient3128"
       gradientUnits="userSpaceOnUse"
       gradientTransform="matrix(-6.1723e-6,1.3371,-1.8072,0,973.1,-342.47)"
       cx="466.25"
       cy="282.32999"
       r="257.14001" />
    <radialGradient
       inkscape:collect="always"
       xlink:href="#radialGradient2929"
       id="radialGradient3130"
       gradientUnits="userSpaceOnUse"
       gradientTransform="matrix(-6.1723e-6,1.3371,-1.8072,0,973.1,-342.47)"
       cx="466.25"
       cy="282.32999"
       r="257.14001" />
    <radialGradient
       inkscape:collect="always"
       xlink:href="#radialGradient3755"
       id="radialGradient3132"
       gradientUnits="userSpaceOnUse"
       gradientTransform="matrix(-0.29792,-0.19112,0.53995,-0.84169,474.34,1447.8)"
       cx="733.10999"
       cy="744.47998"
       r="257.14001" />
    <radialGradient
       inkscape:collect="always"
       xlink:href="#radialGradient3721"
       id="radialGradient3134"
       gradientUnits="userSpaceOnUse"
       gradientTransform="matrix(0.032484,1.2941,-1.8061,0.045355,521.1,6322.5)"
       cx="-4657.8999"
       cy="-49.370998"
       r="257.14001" />
    <radialGradient
       inkscape:collect="always"
       xlink:href="#radialGradient3737"
       id="radialGradient3136"
       gradientUnits="userSpaceOnUse"
       gradientTransform="matrix(0.032484,1.2941,-1.8061,0.045355,521.1,6322.5)"
       cx="-4657.8999"
       cy="-49.370998"
       r="257.14001" />
    <radialGradient
       inkscape:collect="always"
       xlink:href="#radialGradient3769"
       id="radialGradient3138"
       gradientUnits="userSpaceOnUse"
       gradientTransform="matrix(-0.35403,0.93235,-1.7481,-0.66379,1070.5,316.35)"
       cx="424.67999"
       cy="201.21001"
       r="257.14001" />
    <radialGradient
       inkscape:collect="always"
       xlink:href="#radialGradient3786"
       id="radialGradient3140"
       gradientUnits="userSpaceOnUse"
       gradientTransform="matrix(-0.66724,1.3468,-2.1729,-1.0765,1325.7,336.88)"
       cx="316.31"
       cy="367.39001"
       r="257.14001" />
    <radialGradient
       inkscape:collect="always"
       xlink:href="#linearGradient3844"
       id="radialGradient3142"
       gradientUnits="userSpaceOnUse"
       gradientTransform="matrix(-0.014075,0.74261,-0.99982,-0.018948,764.36,-49.514)"
       cx="466.48001"
       cy="291.37"
       r="257.14001" />
    <radialGradient
       inkscape:collect="always"
       xlink:href="#linearGradient3844"
       id="radialGradient3144"
       gradientUnits="userSpaceOnUse"
       gradientTransform="matrix(-0.014075,0.74261,-0.99982,-0.018948,764.36,-49.514)"
       cx="466.48001"
       cy="291.37"
       r="257.14001" />
    <radialGradient
       inkscape:collect="always"
       xlink:href="#linearGradient3844"
       id="radialGradient3146"
       gradientUnits="userSpaceOnUse"
       gradientTransform="matrix(-0.014075,0.74261,-0.99982,-0.018948,764.36,-49.514)"
       cx="466.48001"
       cy="291.37"
       r="257.14001" />
    <radialGradient
       inkscape:collect="always"
       xlink:href="#linearGradient3844"
       id="radialGradient3148"
       gradientUnits="userSpaceOnUse"
       gradientTransform="matrix(-0.014075,0.74261,-0.99982,-0.018948,764.36,-49.514)"
       cx="466.48001"
       cy="291.37"
       r="257.14001" />
    <radialGradient
       inkscape:collect="always"
       xlink:href="#linearGradient3844"
       id="radialGradient3150"
       gradientUnits="userSpaceOnUse"
       gradientTransform="matrix(-0.014075,0.74261,-0.99982,-0.018948,764.36,-49.514)"
       cx="466.48001"
       cy="291.37"
       r="257.14001" />
    <radialGradient
       inkscape:collect="always"
       xlink:href="#linearGradient3961"
       id="radialGradient3152"
       gradientUnits="userSpaceOnUse"
       gradientTransform="matrix(0.48811,0.27449,-0.49017,0.87163,352.33,-6.0412)"
       cx="240.64"
       cy="467.48999"
       r="257.14001" />
    <radialGradient
       inkscape:collect="always"
       xlink:href="#linearGradient3908"
       id="radialGradient3154"
       gradientUnits="userSpaceOnUse"
       gradientTransform="matrix(-8.9741e-5,1.7308,-1.47,-7.4111e-5,867.35,-488.93)"
       cx="466.73001"
       cy="275.13"
       r="259.39999" />
    <radialGradient
       inkscape:collect="always"
       xlink:href="#linearGradient3961"
       id="radialGradient3156"
       gradientUnits="userSpaceOnUse"
       gradientTransform="matrix(0.55154,6.5553e-8,-4.6005e-7,1,94.025,0.066678)"
       cx="202.50999"
       cy="538.01001"
       r="257.14001" />
    <radialGradient
       inkscape:collect="always"
       xlink:href="#radialGradient3914"
       id="radialGradient3158"
       gradientUnits="userSpaceOnUse"
       gradientTransform="matrix(-9.6769e-5,2.0482,-1.7396,-8.765e-5,861.67,-672.92)"
       cx="464.39999"
       cy="229.23"
       r="259.81" />
    <radialGradient
       inkscape:collect="always"
       xlink:href="#linearGradient3961"
       id="radialGradient3160"
       gradientUnits="userSpaceOnUse"
       gradientTransform="matrix(0.65022,0.33707,-0.46023,0.8878,300.93,-11.557)"
       cx="229.97"
       cy="531.78003"
       r="257.14001" />
    <radialGradient
       inkscape:collect="always"
       xlink:href="#linearGradient3908"
       id="radialGradient3162"
       gradientUnits="userSpaceOnUse"
       gradientTransform="matrix(-1.1899e-4,2.2317,-1.8955,-9.5583e-5,847.57,-778.4)"
       cx="463.04999"
       cy="202.94"
       r="259.81" />
    <radialGradient
       inkscape:collect="always"
       xlink:href="#radialGradient3957"
       id="radialGradient3164"
       gradientUnits="userSpaceOnUse"
       gradientTransform="matrix(-0.0048032,-0.17683,1.0631,-0.028876,93.351,415.35)"
       cx="404.07001"
       cy="349.48001"
       r="198.64" />
    <radialGradient
       inkscape:collect="always"
       xlink:href="#radialGradient3949"
       id="radialGradient3166"
       gradientUnits="userSpaceOnUse"
       gradientTransform="matrix(0.12257,0.95216,-0.99182,0.12767,754.62,-148.98)"
       cx="423.57001"
       cy="347.42001"
       r="198.14" />
    <radialGradient
       inkscape:collect="always"
       xlink:href="#radialGradient4001"
       id="radialGradient3168"
       gradientUnits="userSpaceOnUse"
       gradientTransform="matrix(1.1533,-0.13837,0.13837,1.1533,-191.87,-58.942)"
       cx="498.44"
       cy="834.63"
       r="257.14001" />
    <radialGradient
       inkscape:collect="always"
       xlink:href="#radialGradient4028"
       id="radialGradient3170"
       gradientUnits="userSpaceOnUse"
       gradientTransform="matrix(-1.8619,-2.2355,1.054,-0.87785,716.6,1891)"
       cx="432.35001"
       cy="494.07001"
       r="80.999001" />
  </defs>
  <sodipodi:namedview
     id="base"
     bordercolor="#666666"
     inkscape:pageshadow="2"
     inkscape:guide-bbox="true"
     pagecolor="#ffffff"
     inkscape:window-height="744"
     inkscape:window-maximized="1"
     inkscape:zoom="0.98994949"
     inkscape:window-x="0"
     showgrid="false"
     borderopacity="1.0"
     inkscape:current-layer="layer1"
     inkscape:cx="-90.26127"
     inkscape:cy="366.42857"
     showguides="true"
     inkscape:window-y="24"
     inkscape:window-width="1366"
     inkscape:pageopacity="0.0"
     inkscape:document-units="px" />
  <g
     id="layer1"
     inkscape:label="Capa 1"
     inkscape:groupmode="layer"
     transform="translate(-143.5,-211.86)">
    <g
       id="g3087"
       transform="matrix(0.88595021,0,0,0.88595021,53.373454,60.132318)">
      <path
         sodipodi:sides="69"
         sodipodi:r2="313.76367"
         inkscape:rounded="0.52"
         sodipodi:cx="462.85715"
         sodipodi:cy="532.36218"
         inkscape:randomized="0"
         sodipodi:arg2="1.0647424"
         sodipodi:arg1="1.0150406"
         inkscape:flatsided="false"
         sodipodi:r1="319.51495"
         d="m 631.42859,803.79077 c -7.41983,4.56519 -8.87879,-1.24547 -16.48092,3.00923 -6.48965,3.63207 -2.23765,7.89022 -8.89982,11.19522 -7.80423,3.87155 -8.72875,-2.0477 -16.68628,1.49807 -6.79305,3.02689 -2.94588,7.65405 -9.88099,10.33953 -8.12394,3.14584 -8.50637,-2.83296 -16.75337,-0.0255 -7.04015,2.39663 -3.62969,7.35445 -10.78027,9.39817 -8.37635,2.39405 -8.21351,-3.59475 -16.68164,-1.54886 -7.22892,1.7465 -4.28343,6.99392 -11.59022,8.37893 -8.55936,1.62243 -7.8526,-4.32675 -16.47169,-3.05939 -7.35778,1.08191 -4.90167,6.57543 -12.30414,7.29026 -8.67142,0.83736 -7.42661,-5.0229 -16.12523,-4.54456 -7.42568,0.40834 -5.4793,6.10245 -12.9161,6.14117 -8.71165,0.0454 -6.93909,-5.67742 -15.64517,-5.99207 -7.43205,-0.2686 -6.01152,5.57891 -13.42103,4.94121 -8.67968,-0.74702 -6.39406,-6.28491 -15.03546,-7.38994 -7.37683,-0.94332 -6.49393,5.00913 -13.81475,3.70029 -8.57579,-1.53321 -5.79605,-6.84031 -14.30116,-8.72656 -7.26049,-1.61023 -6.92254,4.39785 -14.09401,2.42871 -8.40083,-2.30669 -5.15001,-7.33903 -13.44836,-9.99088 -7.08398,-2.26379 -7.29377,3.75014 -14.25646,1.13702 -8.15627,-3.06107 -4.46131,-7.77694 -12.48412,-11.17242 -6.84878,-2.89858 -7.60457,3.07134 -14.3008,-0.1641 -7.84412,-3.79007 -3.73562,-8.15041 -11.41643,-12.26137 -6.55682,-3.50937 -7.85236,2.3671 -14.22662,-1.46386 -7.46697,-4.48767 -2.979,-8.45634 -10.25415,-13.24872 -6.21053,-4.09107 -8.03507,1.64324 -14.03457,-2.75149 -7.02794,-5.14809 -2.19767,-8.6922 -9.00689,-14.12629 -5.81277,-4.63888 -8.15121,0.90576 -13.72621,-4.01632 -6.53068,-5.76585 -1.39814,-8.85603 -7.685,-14.8868 -5.36686,-5.14824 -8.1998,0.16077 -13.30412,-5.24788 -5.97931,-6.33582 -0.58703,-8.94647 -6.29943,-15.52395 -4.87647,-5.61495 -8.18045,-0.58554 -12.77178,-6.43594 -5.37839,-6.8533 0.22895,-8.9628 -4.86167,-16.03248 -4.34566,-6.03512 -8.09331,-1.327 -12.13361,-7.57068 -4.73291,-7.31398 1.04303,-8.90483 -3.38361,-16.40814 -3.77886,-6.40529 -7.93911,-2.05747 -11.39491,-8.64268 -4.04819,-7.71407 1.84848,-8.7731 -1.87752,-16.64785 -3.18073,-6.72239 -7.71912,-2.77089 -10.56177,-9.64307 -3.32995,-8.05023 2.63859,-8.56865 -0.35587,-16.74961 -2.55626,-6.98377 -7.43517,-3.46134 -9.64112,-10.56354 -2.58411,-8.31969 3.40685,-8.29322 1.16873,-16.71258 -1.91061,-7.18729 -7.08961,-4.12311 -8.64059,-11.39649 -1.81685,-8.5202 4.14688,-7.94905 2.68364,-16.53705 -1.24911,-7.33125 -6.6853,-4.75073 -7.56844,-12.13501 -1.03454,-8.65011 4.85254,-7.53902 4.17631,-16.2245 -0.57727,-7.41446 -6.22559,-5.33897 -6.43359,-12.77296 -0.24366,-8.70836 5.518,-7.06653 5.63439,-15.77751 0.0993,-7.43624 -5.71431,-5.88297 -5.24543,-13.30508 0.54924,-8.69443 6.13772,-6.53547 7.04576,-15.19978 0.77516,-7.39639 -5.15566,-6.37823 -4.0138,-13.72695 1.3376,-8.60846 6.7066,-5.95025 8.39877,-14.49609 1.44453,-7.29527 -4.5543,-6.82063 -2.74892,-14.03507 2.11487,-8.45117 7.2199,-5.31574 9.68217,-13.6723 2.10195,-7.13368 -3.91519,-7.20652 -1.46125,-14.22689 2.87461,-8.22384 7.67338,-4.63718 10.88535,-12.73521 2.74193,-6.91298 -3.24365,-7.53268 -0.16148,-14.30082 3.61053,-7.92836 8.06326,-3.92019 11.99832,-11.69259 3.35921,-6.635 -2.54523,-7.79643 1.13964,-14.25625 4.31654,-7.56719 8.38633,-3.17072 13.01187,-10.55308 3.94864,-6.30204 -1.82572,-7.99558 2.43131,-14.09356 4.98677,-7.14331 8.63991,-2.39496 13.9176,-9.32612 4.50536,-5.91686 -1.09107,-8.12847 3.70283,-13.81407 5.61569,-6.66025 8.82191,-1.59937 14.70801,-8.02189 5.02474,-5.48265 -0.34739,-8.19401 4.94367,-13.42012 6.19807,-6.12199 8.93079,-0.79053 15.37654,-6.65118 5.50248,-5.00301 0.39917,-8.19166 6.14354,-12.91497 6.7291,-5.533 8.96568,0.0249 15.91766,-5.22536 5.93464,-4.48192 1.14242,-8.12142 7.29251,-12.3028 7.20436,-4.89817 8.92627,0.84006 16.32687,-3.75624 6.31762,-3.92368 1.87622,-7.98388 8.38106,-11.58868 7.61992,-4.22275 8.8129,1.64828 16.6008,-2.256 6.64824,-3.33293 2.59445,-7.78019 9.40014,-10.77854 7.97235,-3.51233 8.6265,2.44286 16.73717,-0.73705 6.92378,-2.71457 3.2912,-7.51204 10.34135,-9.87909 8.25871,-2.77282 8.36861,3.21719 16.73485,0.788 7.14193,-2.07372 3.96066,-7.18163 11.19685,-8.89777 8.47664,-2.01032 8.04139,3.96486 16.59386,2.30651 7.30091,-1.41567 4.59731,-6.79171 11.95957,-7.84272 8.62433,-1.23117 7.64753,4.67968 16.31537,3.80592 7.3994,-0.7459 5.19587,-6.34552 12.6232,-6.72268 8.70055,-0.44183 7.1903,5.35571 15.90168,5.27378 7.43657,-0.07 5.75137,-5.84674 13.18223,-5.54694 8.70468,0.35119 6.67349,5.98737 15.35622,6.69794 7.41213,0.6066 6.25922,-5.29951 13.63203,-4.32523 8.63668,1.1413 6.10137,6.56942 14.68352,8.06662 7.32625,1.27809 6.71519,-4.70838 13.96886,-3.06769 8.49711,1.92194 5.47871,7.09703 13.88915,9.36844 7.17968,1.93901 7.11553,-4.07823 14.18994,-1.78472 8.28714,2.68666 4.81065,7.56582 12.97969,10.59262 6.97361,2.58387 7.4569,-3.41427 14.29345,-0.48696 8.00849,3.42912 4.10271,7.97194 11.96267,11.72905 6.70975,3.2073 7.73648,-2.72204 14.27851,0.81482 7.66348,4.14317 3.36079,8.31199 10.84653,12.76828 6.39029,3.80416 7.95195,-2.00725 14.14525,2.10986 7.25498,4.82288 2.59102,8.58317 9.64051,13.70171 6.01789,4.3695 8.10154,-1.27582 13.89479,3.38742 6.78635,5.46262 1.79977,8.78321 8.3546,14.52159 5.59562,4.89863 8.18399,-0.53382 13.52919,4.6369 6.26148,6.05711 0.99361,8.91049 6.99947,15.22116 5.12697,5.38717 8.19862,0.2126 13.05147,5.84796 5.68475,6.60141 0.17923,8.96393 5.58634,15.79459 4.61585,5.83108 8.14532,0.95726 12.46562,7.01057 5.06089,7.09099 -0.63665,8.94308 4.12691,16.23714 4.06648,6.22666 8.02453,1.69399 11.77646,8.11509 4.39511,7.52182 -1.44725,8.84813 2.6333,16.54514 3.48341,6.57065 7.83724,2.41668 10.98973,9.15236 3.6929,7.89033 -2.24586,8.67987 1.11785,16.71605 2.87148,6.86019 7.58501,3.11935 10.11193,10.11379 2.96009,8.19345 -3.02586,8.43968 -0.40685,16.74845 2.23575,7.09288 7.26992,3.79616 9.15033,10.99141 2.20276,8.42868 -3.78078,8.12956 -1.92818,16.64206 1.5815,7.2668 6.8946,4.44152 8.11292,11.77795 1.42718,8.59407 -4.50437,7.75207 -3.43353,16.39777 0.91413,7.38051 6.46214,5.05008 7.00828,12.46691 0.63976,8.68824 -5.19065,7.31035 -4.91044,16.0176 0.2392,7.43306 5.97614,5.61679 5.84557,13.05255 -0.15296,8.71042 -5.83391,6.80805 -6.34665,15.50471 -0.43772,7.42401 5.44061,6.13696 4.63441,13.53004 -0.9444,8.66042 -6.42882,6.24933 -7.73027,14.86334 -1.111,7.35345 4.86001,6.60627 3.38486,13.89541 -1.72802,8.53866 -6.97047,5.63884 -9.04984,14.0988 -1.77508,7.22196 4.23913,7.02085 2.10726,14.14564 -2.49732,8.34615 -7.45436,4.98162 -10.29442,13.21745 -2.42446,7.03062 3.58313,7.37725 0.8122,14.27866 -3.24594,8.08447 -7.87648,4.28312 -11.4537,12.22656 -3.05374,6.78102 2.89744,7.67252 -0.48959,14.29336 -3.96765,7.75581 -8.23333,3.54912 -12.51807,11.13437 -3.65771,6.47523 2.18774,7.9042 -1.78732,14.18961 -4.65648,7.36288 -8.52196,2.78572 -13.47871,9.94991 -4.23138,6.11579 1.45991,8.07039 -3.07025,13.96829 -5.30673,6.90894 -8.73997,1.99924 -14.32765,8.683 -4.76999,5.70567 0.71998,8.16971 -4.32774,13.63123 -5.913,6.39774 -8.88556,1.19619 -15.05787,7.34414 -5.26908,5.24827 -0.0259,8.20134 -5.54936,13.18121 -6.47029,5.83354 -8.95753,0.38323 -15.66333,5.94443 -5.7245,4.74738 -0.7716,8.165 -6.725,12.62196 -6.97396,5.221 -8.95526,-0.43291 -16.13899,4.49546 -6.13248,4.20716 -1.51089,8.06101 -7.84491,11.95814 z"
         sodipodi:type="star"
         style="fill:url(#radialGradient3124)"
         id="path2830" />
      <path
         sodipodi:cx="462.85715"
         sodipodi:cy="538.07648"
         transform="matrix(1.1789,0,0,1.1789,-82.732,-101.87)"
         d="m 720,538.07648 c 0,142.01607 -115.12678,257.14285 -257.14285,257.14285 -142.01608,0 -257.14286,-115.12678 -257.14286,-257.14285 0,-142.01608 115.12678,-257.14286 257.14286,-257.14286 C 604.87322,280.93362 720,396.0604 720,538.07648 z"
         sodipodi:type="arc"
         style="fill:url(#radialGradient3126)"
         sodipodi:ry="257.14285"
         sodipodi:rx="257.14285"
         id="path2818" />
      <path
         sodipodi:cx="462.85715"
         sodipodi:cy="538.07648"
         transform="matrix(1.14,0,0,1.14,-64.732,-80.948)"
         d="m 720,538.07648 c 0,142.01607 -115.12678,257.14285 -257.14285,257.14285 -142.01608,0 -257.14286,-115.12678 -257.14286,-257.14285 0,-142.01608 115.12678,-257.14286 257.14286,-257.14286 C 604.87322,280.93362 720,396.0604 720,538.07648 z"
         sodipodi:type="arc"
         style="fill:#000000"
         sodipodi:ry="257.14285"
         sodipodi:rx="257.14285"
         id="path2820" />
      <path
         sodipodi:cx="462.85715"
         sodipodi:cy="538.07648"
         transform="matrix(1.1011,0,0,1.1011,-46.732,-60.023)"
         d="m 720,538.07648 c 0,142.01607 -115.12678,257.14285 -257.14285,257.14285 -142.01608,0 -257.14286,-115.12678 -257.14286,-257.14285 0,-142.01608 115.12678,-257.14286 257.14286,-257.14286 C 604.87322,280.93362 720,396.0604 720,538.07648 z"
         sodipodi:type="arc"
         style="fill:url(#radialGradient3128)"
         sodipodi:ry="257.14285"
         sodipodi:rx="257.14285"
         id="path2917" />
      <path
         sodipodi:cx="462.85715"
         sodipodi:cy="538.07648"
         transform="matrix(1.0467,0,0,1.0467,-21.532,-30.727)"
         d="m 720,538.07648 c 0,142.01607 -115.12678,257.14285 -257.14285,257.14285 -142.01608,0 -257.14286,-115.12678 -257.14286,-257.14285 0,-142.01608 115.12678,-257.14286 257.14286,-257.14286 C 604.87322,280.93362 720,396.0604 720,538.07648 z"
         sodipodi:type="arc"
         style="fill:url(#radialGradient3130)"
         sodipodi:ry="257.14285"
         sodipodi:rx="257.14285"
         id="path2927" />
      <path
         sodipodi:cx="462.85715"
         sodipodi:cy="538.07648"
         transform="matrix(1.0272,0,0,1.0272,-12.532,-20.265)"
         d="m 720,538.07648 c 0,142.01607 -115.12678,257.14285 -257.14285,257.14285 -142.01608,0 -257.14286,-115.12678 -257.14286,-257.14285 0,-142.01608 115.12678,-257.14286 257.14286,-257.14286 C 604.87322,280.93362 720,396.0604 720,538.07648 z"
         sodipodi:type="arc"
         style="fill:url(#radialGradient3132)"
         sodipodi:ry="257.14285"
         sodipodi:rx="257.14285"
         id="path3709" />
      <path
         sodipodi:cx="462.85715"
         sodipodi:cy="538.07648"
         transform="matrix(0.83667,0,0,0.83667,75.668,82.269)"
         d="m 720,538.07648 c 0,142.01607 -115.12678,257.14285 -257.14285,257.14285 -142.01608,0 -257.14286,-115.12678 -257.14286,-257.14285 0,-142.01608 115.12678,-257.14286 257.14286,-257.14286 C 604.87322,280.93362 720,396.0604 720,538.07648 z"
         sodipodi:type="arc"
         style="fill:url(#radialGradient3134)"
         sodipodi:ry="257.14285"
         sodipodi:rx="257.14285"
         id="path3713" />
      <path
         sodipodi:cx="462.85715"
         sodipodi:cy="538.07648"
         transform="matrix(0.79778,0,0,-0.79778,93.668,961.72)"
         d="m 720,538.07648 c 0,142.01607 -115.12678,257.14285 -257.14285,257.14285 -142.01608,0 -257.14286,-115.12678 -257.14286,-257.14285 0,-142.01608 115.12678,-257.14286 257.14286,-257.14286 C 604.87322,280.93362 720,396.0604 720,538.07648 z"
         sodipodi:type="arc"
         style="fill:url(#radialGradient3136)"
         sodipodi:ry="257.14285"
         sodipodi:rx="257.14285"
         id="path3735" />
      <path
         sodipodi:cx="462.85715"
         sodipodi:cy="538.07648"
         transform="matrix(0.77056,0,0,0.77056,106.27,117.84)"
         d="m 720,538.07648 c 0,142.01607 -115.12678,257.14285 -257.14285,257.14285 -142.01608,0 -257.14286,-115.12678 -257.14286,-257.14285 0,-142.01608 115.12678,-257.14286 257.14286,-257.14286 C 604.87322,280.93362 720,396.0604 720,538.07648 z"
         sodipodi:type="arc"
         style="fill:url(#radialGradient3138)"
         sodipodi:ry="257.14285"
         sodipodi:rx="257.14285"
         id="path3739" />
      <path
         sodipodi:cx="462.85715"
         sodipodi:cy="538.07648"
         transform="matrix(-0.52944,0,0,-0.52944,707.98,817.34)"
         d="m 720,538.07648 c 0,142.01607 -115.12678,257.14285 -257.14285,257.14285 -142.01608,0 -257.14286,-115.12678 -257.14286,-257.14285 0,-142.01608 115.12678,-257.14286 257.14286,-257.14286 C 604.87322,280.93362 720,396.0604 720,538.07648 z"
         sodipodi:type="arc"
         style="fill:url(#radialGradient3140);filter:url(#filter3818)"
         sodipodi:ry="257.14285"
         sodipodi:rx="257.14285"
         id="path3784" />
      <path
         sodipodi:cx="462.85715"
         sodipodi:cy="538.07648"
         transform="matrix(0.72852,0,0,0.72852,125.72,140.46)"
         d="m 720,538.07648 c 0,142.01607 -115.12678,257.14285 -257.14285,257.14285 -142.01608,0 -257.14286,-115.12678 -257.14286,-257.14285 0,-142.01608 115.12678,-257.14286 257.14286,-257.14286 C 604.87322,280.93362 720,396.0604 720,538.07648 z"
         sodipodi:type="arc"
         style="fill:none;stroke:url(#radialGradient3142);stroke-width:4.11789989"
         sodipodi:ry="257.14285"
         sodipodi:rx="257.14285"
         id="path3842" />
      <path
         sodipodi:cx="462.85715"
         sodipodi:cy="538.07648"
         transform="matrix(0.71695,0,0,-0.71695,131.08,918.23)"
         d="m 720,538.07648 c 0,142.01607 -115.12678,257.14285 -257.14285,257.14285 -142.01608,0 -257.14286,-115.12678 -257.14286,-257.14285 0,-142.01608 115.12678,-257.14286 257.14286,-257.14286 C 604.87322,280.93362 720,396.0604 720,538.07648 z"
         sodipodi:type="arc"
         style="fill:none;stroke:url(#radialGradient3144);stroke-width:4.11789989"
         sodipodi:ry="257.14285"
         sodipodi:rx="257.14285"
         id="path3852" />
      <path
         sodipodi:cx="462.85715"
         sodipodi:cy="538.07648"
         transform="matrix(0,0.44389,0.44389,0,224.08,327)"
         d="m 720,538.07648 c 0,142.01607 -115.12678,257.14285 -257.14285,257.14285 -142.01608,0 -257.14286,-115.12678 -257.14286,-257.14285 0,-142.01608 115.12678,-257.14286 257.14286,-257.14286 C 604.87322,280.93362 720,396.0604 720,538.07648 z"
         sodipodi:type="arc"
         style="fill:#00112b"
         sodipodi:ry="257.14285"
         sodipodi:rx="257.14285"
         id="path3977" />
      <path
         sodipodi:cx="462.85715"
         sodipodi:cy="538.07648"
         transform="matrix(0.70537,0,0,0.70537,136.44,152.92)"
         d="m 720,538.07648 c 0,142.01607 -115.12678,257.14285 -257.14285,257.14285 -142.01608,0 -257.14286,-115.12678 -257.14286,-257.14285 0,-142.01608 115.12678,-257.14286 257.14286,-257.14286 C 604.87322,280.93362 720,396.0604 720,538.07648 z"
         sodipodi:type="arc"
         style="fill:none;stroke:url(#radialGradient3146);stroke-width:4.11789989"
         sodipodi:ry="257.14285"
         sodipodi:rx="257.14285"
         id="path3856" />
      <path
         sodipodi:cx="462.85715"
         sodipodi:cy="538.07648"
         transform="matrix(0.6938,0,0,-0.6938,141.8,905.78)"
         d="m 720,538.07648 c 0,142.01607 -115.12678,257.14285 -257.14285,257.14285 -142.01608,0 -257.14286,-115.12678 -257.14286,-257.14285 0,-142.01608 115.12678,-257.14286 257.14286,-257.14286 C 604.87322,280.93362 720,396.0604 720,538.07648 z"
         sodipodi:type="arc"
         style="fill:none;stroke:url(#radialGradient3148);stroke-width:4.11789989"
         sodipodi:ry="257.14285"
         sodipodi:rx="257.14285"
         id="path3860" />
      <path
         sodipodi:cx="462.85715"
         sodipodi:cy="538.07648"
         transform="matrix(0.68222,0,0,0.68222,147.15,165.37)"
         d="m 720,538.07648 c 0,142.01607 -115.12678,257.14285 -257.14285,257.14285 -142.01608,0 -257.14286,-115.12678 -257.14286,-257.14285 0,-142.01608 115.12678,-257.14286 257.14286,-257.14286 C 604.87322,280.93362 720,396.0604 720,538.07648 z"
         sodipodi:type="arc"
         style="fill:none;stroke:url(#radialGradient3150);stroke-width:4.11789989"
         sodipodi:ry="257.14285"
         sodipodi:rx="257.14285"
         id="path3864" />
      <path
         inkscape:connector-curvature="0"
         d="m 462.94,334.31 c -109.43,0 -198.16,88.725 -198.16,198.16 0,64.231 30.562,121.33 77.938,157.53 -6.9966,-20.27 -10.781,-42.04 -10.781,-64.688 0,-109.43 88.694,-198.12 198.12,-198.12 45.192,0 86.852,15.124 120.19,40.594 -26.81,-77.67 -100.53,-133.47 -187.31,-133.47 z"
         style="opacity:0.24490003;fill:#ffffff"
         id="path3771" />
      <path
         sodipodi:cx="462.85715"
         sodipodi:cy="538.07648"
         transform="matrix(0.44389,0,0,-0.44389,257.47,771.31)"
         d="m 720,538.07648 c 0,142.01607 -115.12678,257.14285 -257.14285,257.14285 -142.01608,0 -257.14286,-115.12678 -257.14286,-257.14285 0,-142.01608 115.12678,-257.14286 257.14286,-257.14286 C 604.87322,280.93362 720,396.0604 720,538.07648 z"
         sodipodi:type="arc"
         style="fill:url(#radialGradient3152)"
         sodipodi:ry="257.14285"
         sodipodi:rx="257.14285"
         id="path3969" />
      <path
         sodipodi:cx="462.85715"
         sodipodi:cy="538.07648"
         transform="matrix(-0.44389,0,0,-0.44389,668.38,771.31)"
         d="m 720,538.07648 c 0,142.01607 -115.12678,257.14285 -257.14285,257.14285 -142.01608,0 -257.14286,-115.12678 -257.14286,-257.14285 0,-142.01608 115.12678,-257.14286 257.14286,-257.14286 C 604.87322,280.93362 720,396.0604 720,538.07648 z"
         sodipodi:type="arc"
         style="fill:none;stroke:url(#radialGradient3154);stroke-width:4.50559998"
         sodipodi:ry="257.14285"
         sodipodi:rx="257.14285"
         id="path3896" />
      <path
         sodipodi:cx="462.85715"
         sodipodi:cy="538.07648"
         transform="matrix(0,0.44389,0.44389,0,224.08,327)"
         d="m 720,538.07648 c 0,142.01607 -115.12678,257.14285 -257.14285,257.14285 -142.01608,0 -257.14286,-115.12678 -257.14286,-257.14285 0,-142.01608 115.12678,-257.14286 257.14286,-257.14286 C 604.87322,280.93362 720,396.0604 720,538.07648 z"
         sodipodi:type="arc"
         style="fill:url(#radialGradient3156)"
         sodipodi:ry="257.14285"
         sodipodi:rx="257.14285"
         id="path3973" />
      <path
         sodipodi:cx="462.85715"
         sodipodi:cy="538.07648"
         transform="matrix(-0.3745,0,0,-0.3745,636.26,733.97)"
         d="m 720,538.07648 c 0,142.01607 -115.12678,257.14285 -257.14285,257.14285 -142.01608,0 -257.14286,-115.12678 -257.14286,-257.14285 0,-142.01608 115.12678,-257.14286 257.14286,-257.14286 C 604.87322,280.93362 720,396.0604 720,538.07648 z"
         sodipodi:type="arc"
         style="fill:none;stroke:url(#radialGradient3158);stroke-width:5.34049988"
         sodipodi:ry="257.14285"
         sodipodi:rx="257.14285"
         id="path3900" />
      <path
         sodipodi:cx="462.85715"
         sodipodi:cy="538.07648"
         transform="matrix(-0.44389,0,0,-0.44389,668.38,771.31)"
         d="m 720,538.07648 c 0,142.01607 -115.12678,257.14285 -257.14285,257.14285 -142.01608,0 -257.14286,-115.12678 -257.14286,-257.14285 0,-142.01608 115.12678,-257.14286 257.14286,-257.14286 C 604.87322,280.93362 720,396.0604 720,538.07648 z"
         sodipodi:type="arc"
         style="fill:url(#radialGradient3160)"
         sodipodi:ry="257.14285"
         sodipodi:rx="257.14285"
         id="path3959" />
      <path
         sodipodi:cx="462.85715"
         sodipodi:cy="538.07648"
         transform="matrix(-0.34371,0,0,-0.34371,622.01,717.4)"
         d="m 720,538.07648 c 0,142.01607 -115.12678,257.14285 -257.14285,257.14285 -142.01608,0 -257.14286,-115.12678 -257.14286,-257.14285 0,-142.01608 115.12678,-257.14286 257.14286,-257.14286 C 604.87322,280.93362 720,396.0604 720,538.07648 z"
         sodipodi:type="arc"
         style="fill:none;stroke:url(#radialGradient3162);stroke-width:5.34049988"
         sodipodi:ry="257.14285"
         sodipodi:rx="257.14285"
         id="path3904" />
      <path
         inkscape:connector-curvature="0"
         d="m 462.94,334.31 c -109.43,0 -198.16,88.725 -198.16,198.16 0,109.43 88.725,198.12 198.16,198.12 109.43,0 198.12,-88.694 198.12,-198.12 0,-109.426 -88.694,-198.16 -198.12,-198.16 z m 0,22 c 97.281,0 176.12,78.875 176.12,176.16 0,97.281 -78.844,176.12 -176.12,176.12 -97.281,0 -176.16,-78.844 -176.16,-176.12 0,-97.281 78.875,-176.16 176.16,-176.16 z"
         style="fill:url(#radialGradient3164);stroke:url(#radialGradient3166)"
         id="path3934" />
      <path
         sodipodi:cx="462.85715"
         sodipodi:cy="538.07648"
         transform="matrix(-0.093889,0,0,-0.093889,506.38,582.98)"
         d="m 720,538.07648 c 0,142.01607 -115.12678,257.14285 -257.14285,257.14285 -142.01608,0 -257.14286,-115.12678 -257.14286,-257.14285 0,-142.01608 115.12678,-257.14286 257.14286,-257.14286 C 604.87322,280.93362 720,396.0604 720,538.07648 z"
         sodipodi:type="arc"
         style="fill:#1a1a1a"
         sodipodi:ry="257.14285"
         sodipodi:rx="257.14285"
         id="path3991" />
      <path
         sodipodi:cx="462.85715"
         sodipodi:cy="538.07648"
         transform="matrix(-0.066666,0,0,-0.066666,493.78,568.33)"
         d="m 720,538.07648 c 0,142.01607 -115.12678,257.14285 -257.14285,257.14285 -142.01608,0 -257.14286,-115.12678 -257.14286,-257.14285 0,-142.01608 115.12678,-257.14286 257.14286,-257.14286 C 604.87322,280.93362 720,396.0604 720,538.07648 z"
         sodipodi:type="arc"
         style="fill:url(#radialGradient3168)"
         sodipodi:ry="257.14285"
         sodipodi:rx="257.14285"
         id="path3993" />
      <path
         sodipodi:cx="462.85715"
         sodipodi:cy="538.07648"
         transform="matrix(0.88333,0,0,0.88333,54.068,57.159)"
         d="m 720,538.07648 c 0,142.01607 -115.12678,257.14285 -257.14285,257.14285 -142.01608,0 -257.14286,-115.12678 -257.14286,-257.14285 0,-142.01608 115.12678,-257.14286 257.14286,-257.14286 C 604.87322,280.93362 720,396.0604 720,538.07648 z"
         sodipodi:type="arc"
         style="fill:none"
         sodipodi:ry="257.14285"
         sodipodi:rx="257.14285"
         id="path4003" />
      <text
         style="font-size:40px;text-align:center;text-anchor:middle;fill:#ffffff;font-family:Bitstream Vera Sans"
         transform="matrix(0,1,-1,0,994.95,65.45)"
         xml:space="preserve"
         id="text4005"><textPath
           startOffset="50%"
           xlink:href="#path4003"
           style="font-size:28px;font-style:normal;font-variant:normal;font-weight:normal;font-stretch:normal;font-family:Ubuntu;-inkscape-font-specification:Ubuntu"
           id="textPath4009">IMAGINARIO PHOTO MANAGER      mardy.it</textPath></text>
      <text
         transform="matrix(0,-1,1,0,-67.453,992.76)"
         xml:space="preserve"
         style="font-size:40px;text-align:center;text-anchor:middle;fill:#ffffff;font-family:Bitstream Vera Sans"
         id="text4014"><textPath
           startOffset="50%"
           xlink:href="#path4003"
           style="font-size:28px"
           id="textPath4016"><tspan
             dx="0 0 0 0 0 0 0 0 0 4.2857137"
             style="font-size:28px;-inkscape-font-specification:Ubuntu;font-family:Ubuntu;font-weight:normal;font-style:normal;font-stretch:normal;font-variant:normal"
             id="tspan4018"> ZOOM  LENS           17-35 mm  1:2-8</tspan></textPath></text>
      <path
         inkscape:connector-curvature="0"
         d="m 291.57,501.48 c -3.744,-29.368 79.497,-124.15 131.28,-127.69 l 30.592,89.336 c -41.092,40.139 -48.323,51.669 -49.163,60.664 l -112.71,-22.31 z"
         style="opacity:0.54082001;fill:url(#radialGradient3170)"
         sodipodi:nodetypes="ccccc"
         id="path4020" />
      <path
         inkscape:connector-curvature="0"
         d="m 367.64,480.13 c 7.7839,-17.041 25.779,-35.671 36.781,-37.727 l 45.025,38.705 c -23.844,23.29 -28.039,29.98 -28.527,35.2 l -53.28,-36.177 z"
         style="opacity:0.54082001;fill:#ffffff"
         sodipodi:nodetypes="ccccc"
         id="path4030" />
    </g>
  </g>
  <metadata
     id="metadata102">
    <rdf:RDF>
      <cc:Work>
        <dc:format>image/svg+xml</dc:format>
        <dc:type
           rdf:resource="http://purl.org/dc/dcmitype/StillImage" />
        <cc:license
           rdf:resource="http://creativecommons.org/licenses/publicdomain/" />
        <dc:publisher>
          <cc:Agent
             rdf:about="http://openclipart.org/">
            <dc:title>Openclipart</dc:title>
          </cc:Agent>
        </dc:publisher>
        <dc:title>Lens </dc:title>
        <dc:date>2012-03-22T23:10:15</dc:date>
        <dc:description>Just a simple camera lens</dc:description>
        <dc:source>https://openclipart.org/detail/169002/lens--by-mrallowski</dc:source>
        <dc:creator>
          <cc:Agent>
            <dc:title>mrallowski</dc:title>
          </cc:Agent>
        </dc:creator>
        <dc:subject>
          <rdf:Bag>
            <rdf:li>Camara</rdf:li>
            <rdf:li>Camera</rdf:li>
            <rdf:li>Lens</rdf:li>
            <rdf:li>Lentes</rdf:li>
          </rdf:Bag>
        </dc:subject>
      </cc:Work>
      <cc:License
         rdf:about="http://creativecommons.org/licenses/publicdomain/">
        <cc:permits
           rdf:resource="http://creativecommons.org/ns#Reproduction" />
        <cc:permits
           rdf:resource="http://creativecommons.org/ns#Distribution" />
        <cc:permits
           rdf:resource="http://creativecommons.org/ns#DerivativeWorks" />
      </cc:License>
    </rdf:RDF>
  </metadata>
</svg>
