<?xml version="1.0" encoding="UTF-8" standalone="no"?>
<!-- Created with Inkscape (http://www.inkscape.org/) -->
<svg
    xmlns:inkscape="http://www.inkscape.org/namespaces/inkscape"
    xmlns:rdf="http://www.w3.org/1999/02/22-rdf-syntax-ns#"
    xmlns="http://www.w3.org/2000/svg"
    xmlns:sodipodi="http://sodipodi.sourceforge.net/DTD/sodipodi-0.dtd"
    xmlns:cc="http://web.resource.org/cc/"
    xmlns:xlink="http://www.w3.org/1999/xlink"
    xmlns:dc="http://purl.org/dc/elements/1.1/"
    xmlns:svg="http://www.w3.org/2000/svg"
    xmlns:ns1="http://sozi.baierouge.fr"
    id="svg1"
    sodipodi:docname="file_broken.svg"
    viewBox="0 0 437.5 437.5"
    sodipodi:version="0.32"
    version="1.0"
    y="0"
    x="0"
    inkscape:version="0.37"
    sodipodi:docbase="/usr/share/icons/Lemon/scalable/filesystems"
  >
  <sodipodi:namedview
      id="base"
      bordercolor="#666666"
      inkscape:pageshadow="2"
      inkscape:window-width="640"
      pagecolor="#ffffff"
      inkscape:zoom="0.43415836"
      inkscape:window-x="0"
      borderopacity="1.0"
      inkscape:cx="305.259526"
      inkscape:cy="417.849473"
      inkscape:window-y="18"
      inkscape:window-height="549"
      inkscape:pageopacity="0.0"
  />
  <path
      id="path623"
      sodipodi:nodetypes="ccccc"
      style="fill-rule:evenodd;fill:#040565;fill-opacity:.3977"
      d="m101.51 420.19l-19.5-380.31 326.88 1.021c-0.02 20.061 5.69 359.95 5.89 376.59-103.06-20.5-303.92 2.56-313.27 2.7z"
  />
  <path
      id="path583"
      sodipodi:nodetypes="ccccs"
      style="fill-rule:evenodd;stroke:#9abf99;stroke-width:15.892;fill:#ffffeb"
      d="m54.372 394.65c-5.846-126.11-7.764-324.9-17.538-378.34 106.34 15.401 257.76-13.086 324.92-0.943-20.03 58.673 3.73 359.95 3.93 376.58-103.07-20.49-310.88 12.04-311.31 2.7z"
  />
  <path
      id="path622"
      sodipodi:nodetypes="cccccc"
      style="fill-rule:evenodd;fill:#b2d385;fill-opacity:.4327"
      d="m75.978 367.16c-15.266-68.12-14.048-323.15-13.579-332.15 100.66 18.276 242.64-3.342 260.57-2.983l-0.51 24.588c-0.01 20.06-73.65 143.7-73.45 160.34-103.07-20.5-163.69 150.06-173.03 150.2z"
  />
  <path
      id="path581"
      style="fill-rule:evenodd;fill:#ff0000"
      d="m138.64 131.23l222.78 162.35 21.81-32.46-222.78-162.35-21.81 32.46z"
  />
  <path
      id="path582"
      style="fill-rule:evenodd;fill:#ff0000"
      d="m330.82 71.967l-174.56 217.11 29.16 25.43 174.56-217.11-29.16-25.433z"
  />
  <metadata
    >
    <rdf:RDF
      >
      <cc:Work
        >
        <dc:format
          >image/svg+xml</dc:format
        >
        <dc:type
            rdf:resource="http://purl.org/dc/dcmitype/StillImage"
        />
        <cc:license
            rdf:resource="http://creativecommons.org/licenses/publicdomain/"
        />
        <dc:publisher
          >
          <cc:Agent
              rdf:about="http://openclipart.org/"
            >
            <dc:title
              >Openclipart</dc:title
            >
          </cc:Agent
          >
        </dc:publisher
        >
        <dc:title
          >file broken</dc:title
        >
        <dc:date
          >2011-01-21T16:58:42</dc:date
        >
        <dc:description
          >Originally uploaded by Jose Hevia for OCAL 0.18</dc:description
        >
        <dc:source
          >https://openclipart.org/detail/107581/file-broken-by-anonymous</dc:source
        >
        <dc:creator
          >
          <cc:Agent
            >
            <dc:title
              >Anonymous</dc:title
            >
          </cc:Agent
          >
        </dc:creator
        >
        <dc:subject
          >
          <rdf:Bag
            >
            <rdf:li
              >fix</rdf:li
            >
            <rdf:li
              >keyword</rdf:li
            >
            <rdf:li
              >librarians</rdf:li
            >
            <rdf:li
              >tag</rdf:li
            >
          </rdf:Bag
          >
        </dc:subject
        >
      </cc:Work
      >
      <cc:License
          rdf:about="http://creativecommons.org/licenses/publicdomain/"
        >
        <cc:permits
            rdf:resource="http://creativecommons.org/ns#Reproduction"
        />
        <cc:permits
            rdf:resource="http://creativecommons.org/ns#Distribution"
        />
        <cc:permits
            rdf:resource="http://creativecommons.org/ns#DerivativeWorks"
        />
      </cc:License
      >
    </rdf:RDF
    >
  </metadata
  >
</svg
>
